[
    {
        "nom": "animation1",
        "description": "description animation 1",
        "liste": [
            {
                "intensite": 100,
                "duree": 30
            },
            {
                "intensite": 63,
                "duree": 4
            },
            {
                "intensite": 90,
                "duree": 6
            }
        ]
    },
    {
        "nom": "animation2",
        "description": "l'animation2",
        "liste": [
            {
                "intensite": 60,
                "duree": 30
            },
            {
                "intensite": 100,
                "duree": 30
            },
            {
                "intensite": 13,
                "duree": 30
            }
        ]
    },
    {
        "nom": "animation3",
        "description": "l'animation3",
        "liste": [
            {
                "intensite": 20,
                "duree": 10
            },
            {
                "intensite": 30,
                "duree": 10
            },
            {
                "intensite": 70,
                "duree": 5
            },
            {
                "intensite": 100,
                "duree": 10
            }
        ]
    },
    {
        "nom": "Luc",
        "description": "Allumage progressif sur 20 secondes, extinction progressive sur 20 secondes",
        "liste": [
            {
                "intensite": 0,
                "duree": 1
            },
            {
                "intensite": 100,
                "duree": 20
            },
            {
                "intensite": 0,
                "duree": 20
            }
        ]
    }
]
