[
    {"nom": "blanc", "script" :"blanc.py"},
    {"nom": "bleu", "script" :"bleu.py"},
    {"nom": "cyan", "script" :"cyan.py"},
    {"nom": "jaune", "script" :"jaune.py"},
    {"nom": "magenta", "script" :"magenta.py"},
    {"nom": "rouge", "script" :"rouge.py"},
    {"nom": "vert", "script" :"vert.py"},
    { "nom" : "clignotement", "script" : "clignotement.py"},
    { "nom" : "noel", "script" : "noel.py"},
    { "nom" : "eteint", "script" : "eteint.py"}
]
